[2022-09-19 17:47:22.151] [d621c773-cb2f-4953-b911-8b3e985e489f] [info] Below are logs for extension telemetry events sent to the telemetry output channel API once the log level is set to trace.
[2022-09-19 17:47:22.151] [d621c773-cb2f-4953-b911-8b3e985e489f] [info] ===========================================================
[2022-09-19 17:48:13.507] [d621c773-cb2f-4953-b911-8b3e985e489f] [info] Below are logs for extension telemetry events sent to the telemetry output channel API once the log level is set to trace.
[2022-09-19 17:48:13.507] [d621c773-cb2f-4953-b911-8b3e985e489f] [info] ===========================================================
