[2022-09-17T10:06:00.195Z] Log level: Info
[2022-09-17T10:06:00.198Z] [info] Validating found git in: git
[2022-09-17T10:06:00.211Z] [info] Using git 2.37.3 from git
[2022-09-17T10:06:00.225Z] > git rev-parse --show-toplevel [3ms]
[2022-09-17T10:06:00.225Z] fatal: not a git repository (or any parent up to mount point /)
Stopping at filesystem boundary (GIT_DISCOVERY_ACROSS_FILESYSTEM not set).
[2022-09-17T10:06:00.235Z] > git rev-parse --show-toplevel [1ms]
[2022-09-17T10:06:00.235Z] fatal: not a git repository (or any parent up to mount point /)
Stopping at filesystem boundary (GIT_DISCOVERY_ACROSS_FILESYSTEM not set).
[2022-09-17T10:06:00.241Z] > git rev-parse --show-toplevel [0ms]
[2022-09-17T10:06:00.242Z] fatal: not a git repository (or any parent up to mount point /)
Stopping at filesystem boundary (GIT_DISCOVERY_ACROSS_FILESYSTEM not set).
[2022-09-17T10:06:00.383Z] > git rev-parse --show-toplevel [2ms]
[2022-09-17T10:06:00.383Z] fatal: not a git repository (or any parent up to mount point /)
Stopping at filesystem boundary (GIT_DISCOVERY_ACROSS_FILESYSTEM not set).
