00:00:00.640367 VirtualBox GUI VM Selector Window 6.1.36 r152435 linux.amd64 (Jul 21 2022 10:08:57) release log
00:00:00.640369 Log opened 2022-08-02T03:33:54.553950000Z
00:00:00.640370 Build Type: release
00:00:00.640372 OS Product: Linux
00:00:00.640373 OS Release: 5.18.15-arch1-1
00:00:00.640373 OS Version: #1 SMP PREEMPT_DYNAMIC Fri, 29 Jul 2022 22:52:39 +0000
00:00:00.640392 DMI Product Name: Inspiron 3501
00:00:00.640398 DMI Product Version: 
00:00:00.640402 Firmware type: UEFI
00:00:00.640849 Secure Boot: Disabled
00:00:00.640880 Host RAM: 7677MB (7.4GB) total, 7036MB (6.8GB) available
00:00:00.640883 Executable: /usr/lib/virtualbox/VirtualBox
00:00:00.640884 Process ID: 4024
00:00:00.640884 Package type: LINUX_64BITS_GENERIC (OSE)
00:00:00.640909 Qt version: 5.15.5
00:00:00.648579 GUI: UIMediumEnumerator: Medium-enumeration started...
00:00:01.205629 GUI: UIDesktopWidgetWatchdog::sltHandleHostScreenAvailableGeometryCalculated: Screen 0 work area is actually resized to: 6x32 x 1900x1034
00:00:01.222256 GUI: UIMediumEnumerator: Medium-enumeration finished!
00:00:51.671578 GUI: UIMediumEnumerator: Medium with key={{310a801c-c8cd-4590-b355-d45fe06ef5b3}} created
00:00:51.752820 GUI: UIMediumEnumerator: Medium-enumeration finished!
00:01:53.851860 GUI: UIMediumEnumerator: Medium-enumeration finished!
00:01:53.865039 GUI: UIMediumEnumerator: Medium-enumeration finished!
