00:00:00.321908 VirtualBox GUI VM Selector Window 6.1.36 r152435 linux.amd64 (Jul 21 2022 10:08:57) release log
00:00:00.321910 Log opened 2022-08-02T03:13:58.041926000Z
00:00:00.321911 Build Type: release
00:00:00.321912 OS Product: Linux
00:00:00.321913 OS Release: 5.18.15-arch1-1
00:00:00.321914 OS Version: #1 SMP PREEMPT_DYNAMIC Fri, 29 Jul 2022 22:52:39 +0000
00:00:00.321932 DMI Product Name: Inspiron 3501
00:00:00.321938 DMI Product Version: 
00:00:00.321942 Firmware type: UEFI
00:00:00.322396 Secure Boot: Disabled
00:00:00.322427 Host RAM: 7677MB (7.4GB) total, 6811MB (6.6GB) available
00:00:00.322430 Executable: /usr/lib/virtualbox/VirtualBox
00:00:00.322431 Process ID: 15279
00:00:00.322431 Package type: LINUX_64BITS_GENERIC (OSE)
00:00:00.322510 Qt version: 5.15.5
00:00:00.330497 GUI: UIMediumEnumerator: Medium-enumeration started...
00:00:00.879922 GUI: UIDesktopWidgetWatchdog::sltHandleHostScreenAvailableGeometryCalculated: Screen 0 work area is actually resized to: 966x551 x 940x515
00:00:00.895082 GUI: UIMediumEnumerator: Medium-enumeration finished!
00:01:20.696111 GUI: UIMediumEnumerator: Medium with key={{b30974af-ead7-47a6-bc35-c07218f8c7b8}} created
00:01:20.773447 GUI: UIMediumEnumerator: Medium-enumeration finished!
00:02:44.370672 GUI: UIMediumEnumerator: Medium with key={{b3ee66c0-dba5-4988-ba36-e582b3ec9c7a}} created
00:02:44.382703 GUI: UIMediumEnumerator: Medium-enumeration finished!
00:03:00.346008 GUI: UIMediumEnumerator: Medium-enumeration finished!
00:03:00.357941 GUI: UIMediumEnumerator: Medium-enumeration finished!
00:03:28.005499 GUI: UIMediumEnumerator: Medium-enumeration finished!
