00:00:00.614112 VirtualBox GUI VM Selector Window 6.1.36 r152435 linux.amd64 (Jul 21 2022 10:08:57) release log
00:00:00.614114 Log opened 2022-08-02T04:01:52.449448000Z
00:00:00.614115 Build Type: release
00:00:00.614117 OS Product: Linux
00:00:00.614118 OS Release: 5.18.15-arch1-1
00:00:00.614118 OS Version: #1 SMP PREEMPT_DYNAMIC Fri, 29 Jul 2022 22:52:39 +0000
00:00:00.614136 DMI Product Name: Inspiron 3501
00:00:00.614141 DMI Product Version: 
00:00:00.614145 Firmware type: UEFI
00:00:00.614582 Secure Boot: Disabled
00:00:00.614613 Host RAM: 7677MB (7.4GB) total, 6485MB (6.3GB) available
00:00:00.614616 Executable: /usr/lib/virtualbox/VirtualBox
00:00:00.614616 Process ID: 6799
00:00:00.614616 Package type: LINUX_64BITS_GENERIC (OSE)
00:00:00.614640 Qt version: 5.15.5
00:00:00.623472 GUI: UIMediumEnumerator: Medium-enumeration started...
00:00:01.177908 GUI: UIDesktopWidgetWatchdog::sltHandleHostScreenAvailableGeometryCalculated: Screen 0 work area is actually resized to: 6x32 x 1900x1034
00:00:01.195141 GUI: UIMediumEnumerator: Medium-enumeration finished!
