00:00:00.318873 VirtualBox GUI VM Selector Window 6.1.36 r152435 linux.amd64 (Jul 21 2022 10:08:57) release log
00:00:00.318875 Log opened 2022-08-02T02:14:29.904315000Z
00:00:00.318876 Build Type: release
00:00:00.318878 OS Product: Linux
00:00:00.318879 OS Release: 5.18.15-arch1-1
00:00:00.318880 OS Version: #1 SMP PREEMPT_DYNAMIC Fri, 29 Jul 2022 22:52:39 +0000
00:00:00.318900 DMI Product Name: Inspiron 3501
00:00:00.318906 DMI Product Version: 
00:00:00.318911 Firmware type: UEFI
00:00:00.319368 Secure Boot: Disabled
00:00:00.319402 Host RAM: 7677MB (7.4GB) total, 6115MB (5.9GB) available
00:00:00.319405 Executable: /usr/lib/virtualbox/VirtualBox
00:00:00.319405 Process ID: 18072
00:00:00.319406 Package type: LINUX_64BITS_GENERIC (OSE)
00:00:00.319442 Qt version: 5.15.5
00:00:00.324528 GUI: UIMediumEnumerator: Medium-enumeration started...
00:00:00.324555 GUI: UIMediumEnumerator: Medium-enumeration finished!
00:00:00.868770 GUI: UIDesktopWidgetWatchdog::sltHandleHostScreenAvailableGeometryCalculated: Screen 0 work area is actually resized to: 966x32 x 940x1034
00:08:24.579282 GUI: UIMediumEnumerator: Medium with key={{b545b1a1-5902-44e3-9317-f88850114a1c}} created
00:08:24.678128 GUI: UIMediumEnumerator: Medium-enumeration finished!
00:12:26.614964 GUI: UIMediumEnumerator: Medium with key={{e3db73f3-dacd-47ce-b682-c3c45dfbf3e6}} created
00:12:26.635126 GUI: UIMediumEnumerator: Medium-enumeration finished!
00:13:33.185712 GUI: UIMediumEnumerator: Medium-enumeration finished!
00:13:33.206030 GUI: UIMediumEnumerator: Medium-enumeration finished!
00:17:34.034554 ERROR [COM]: aRC=NS_ERROR_UNEXPECTED (0x8000ffff) aIID={c0447716-ff5a-4795-b57a-ecd5fffa18a4} aComponent={SessionWrap} aText={The session is not locked (session state: Unlocked)}, preserve=false aResultDetail=0
00:20:42.310284 ERROR [COM]: aRC=NS_ERROR_UNEXPECTED (0x8000ffff) aIID={c0447716-ff5a-4795-b57a-ecd5fffa18a4} aComponent={SessionWrap} aText={The session is not locked (session state: Unlocked)}, preserve=false aResultDetail=0
