00:00:00.315616 VirtualBox GUI VM Selector Window 6.1.36 r152435 linux.amd64 (Jul 21 2022 10:08:57) release log
00:00:00.315617 Log opened 2022-08-02T02:51:07.947553000Z
00:00:00.315618 Build Type: release
00:00:00.315620 OS Product: Linux
00:00:00.315620 OS Release: 5.18.15-arch1-1
00:00:00.315621 OS Version: #1 SMP PREEMPT_DYNAMIC Fri, 29 Jul 2022 22:52:39 +0000
00:00:00.315639 DMI Product Name: Inspiron 3501
00:00:00.315645 DMI Product Version: 
00:00:00.315649 Firmware type: UEFI
00:00:00.316087 Secure Boot: Disabled
00:00:00.316116 Host RAM: 7677MB (7.4GB) total, 5858MB (5.7GB) available
00:00:00.316119 Executable: /usr/lib/virtualbox/VirtualBox
00:00:00.316120 Process ID: 32038
00:00:00.316120 Package type: LINUX_64BITS_GENERIC (OSE)
00:00:00.316146 Qt version: 5.15.5
00:00:00.324833 GUI: UIMediumEnumerator: Medium-enumeration started...
00:00:00.857236 GUI: UIDesktopWidgetWatchdog::sltHandleHostScreenAvailableGeometryCalculated: Screen 0 work area is actually resized to: 6x32 x 1900x1034
00:00:00.867851 GUI: UIMediumEnumerator: Medium-enumeration finished!
00:00:14.260333 ERROR [COM]: aRC=NS_ERROR_UNEXPECTED (0x8000ffff) aIID={c0447716-ff5a-4795-b57a-ecd5fffa18a4} aComponent={SessionWrap} aText={The session is not locked (session state: Unlocked)}, preserve=false aResultDetail=0
