00:00:00.097467 VirtualBox GUI VM Selector Window 6.1.36 r152435 linux.amd64 (Jul 21 2022 10:08:57) release log
00:00:00.097468 Log opened 2022-08-02T02:54:51.488939000Z
00:00:00.097469 Build Type: release
00:00:00.097470 OS Product: Linux
00:00:00.097471 OS Release: 5.18.15-arch1-1
00:00:00.097471 OS Version: #1 SMP PREEMPT_DYNAMIC Fri, 29 Jul 2022 22:52:39 +0000
00:00:00.097486 DMI Product Name: Inspiron 3501
00:00:00.097491 DMI Product Version: 
00:00:00.097494 Firmware type: UEFI
00:00:00.097891 Secure Boot: Disabled
00:00:00.097924 Host RAM: 7677MB (7.4GB) total, 5872MB (5.7GB) available
00:00:00.097926 Executable: /usr/lib/virtualbox/VirtualBox
00:00:00.097927 Process ID: 33394
00:00:00.097927 Package type: LINUX_64BITS_GENERIC (OSE)
00:00:00.097951 Qt version: 5.15.5
00:00:00.103306 GUI: UIMediumEnumerator: Medium-enumeration started...
00:00:00.410347 GUI: UIDesktopWidgetWatchdog::sltHandleHostScreenAvailableGeometryCalculated: Screen 0 work area is actually resized to: 6x32 x 1900x1034
00:00:00.422584 GUI: UIMediumEnumerator: Medium-enumeration finished!
