00:00:00.660434 VirtualBox GUI VM Selector Window 6.1.36 r152435 linux.amd64 (Jul 21 2022 10:08:57) release log
00:00:00.660436 Log opened 2022-08-02T04:11:55.454178000Z
00:00:00.660437 Build Type: release
00:00:00.660439 OS Product: Linux
00:00:00.660440 OS Release: 5.18.15-arch1-1
00:00:00.660440 OS Version: #1 SMP PREEMPT_DYNAMIC Fri, 29 Jul 2022 22:52:39 +0000
00:00:00.660460 DMI Product Name: Inspiron 3501
00:00:00.660467 DMI Product Version: 
00:00:00.660470 Firmware type: UEFI
00:00:00.660920 Secure Boot: Disabled
00:00:00.660953 Host RAM: 7677MB (7.4GB) total, 6534MB (6.3GB) available
00:00:00.660956 Executable: /usr/lib/virtualbox/VirtualBox
00:00:00.660957 Process ID: 5263
00:00:00.660957 Package type: LINUX_64BITS_GENERIC (OSE)
00:00:00.660983 Qt version: 5.15.5
00:00:00.669913 GUI: UIMediumEnumerator: Medium-enumeration started...
00:00:01.228887 GUI: UIDesktopWidgetWatchdog::sltHandleHostScreenAvailableGeometryCalculated: Screen 0 work area is actually resized to: 6x32 x 1900x1034
00:00:01.247012 GUI: UIMediumEnumerator: Medium-enumeration finished!
00:07:18.907511 VirtualBoxClient: detected unresponsive VBoxSVC (rc=NS_ERROR_ABORT)
