00:00:00.356288 VirtualBox GUI VM Selector Window 6.1.36 r152435 linux.amd64 (Jul 21 2022 10:08:57) release log
00:00:00.356290 Log opened 2022-08-02T03:23:09.218308000Z
00:00:00.356291 Build Type: release
00:00:00.356292 OS Product: Linux
00:00:00.356293 OS Release: 5.18.15-arch1-1
00:00:00.356294 OS Version: #1 SMP PREEMPT_DYNAMIC Fri, 29 Jul 2022 22:52:39 +0000
00:00:00.356312 DMI Product Name: Inspiron 3501
00:00:00.356318 DMI Product Version: 
00:00:00.356322 Firmware type: UEFI
00:00:00.356784 Secure Boot: Disabled
00:00:00.356820 Host RAM: 7677MB (7.4GB) total, 6450MB (6.2GB) available
00:00:00.356823 Executable: /usr/lib/virtualbox/VirtualBox
00:00:00.356824 Process ID: 6045
00:00:00.356825 Package type: LINUX_64BITS_GENERIC (OSE)
00:00:00.356981 Qt version: 5.15.5
00:00:00.368931 GUI: UIMediumEnumerator: Medium-enumeration started...
00:00:00.915792 GUI: UIDesktopWidgetWatchdog::sltHandleHostScreenAvailableGeometryCalculated: Screen 0 work area is actually resized to: 6x32 x 1900x1034
00:00:00.933358 GUI: UIMediumEnumerator: Medium-enumeration finished!
00:01:37.240301 GUI: UIMediumEnumerator: Medium with key={{8bf267b1-997d-42e9-9418-743bfb4a4a23}} created
00:01:37.323332 GUI: UIMediumEnumerator: Medium-enumeration finished!
00:06:22.882423 GUI: UIMediumEnumerator: Medium-enumeration finished!
00:06:22.895895 GUI: UIMediumEnumerator: Medium-enumeration finished!
