00:00:00.360253 VirtualBox GUI VM Selector Window 6.1.36 r152435 linux.amd64 (Jul 21 2022 10:08:57) release log
00:00:00.360255 Log opened 2022-08-02T03:02:02.046953000Z
00:00:00.360256 Build Type: release
00:00:00.360258 OS Product: Linux
00:00:00.360258 OS Release: 5.18.15-arch1-1
00:00:00.360259 OS Version: #1 SMP PREEMPT_DYNAMIC Fri, 29 Jul 2022 22:52:39 +0000
00:00:00.360276 DMI Product Name: Inspiron 3501
00:00:00.360282 DMI Product Version: 
00:00:00.360285 Firmware type: UEFI
00:00:00.360777 Secure Boot: Disabled
00:00:00.360808 Host RAM: 7677MB (7.4GB) total, 7040MB (6.8GB) available
00:00:00.360811 Executable: /usr/lib/virtualbox/VirtualBox
00:00:00.360811 Process ID: 3528
00:00:00.360812 Package type: LINUX_64BITS_GENERIC (OSE)
00:00:00.360836 Qt version: 5.15.5
00:00:00.368990 GUI: UIMediumEnumerator: Medium-enumeration started...
00:00:00.912477 GUI: UIDesktopWidgetWatchdog::sltHandleHostScreenAvailableGeometryCalculated: Screen 0 work area is actually resized to: 6x32 x 1900x1034
00:00:00.928540 GUI: UIMediumEnumerator: Medium-enumeration finished!
