00:00:00.000568 main     VirtualBox XPCOM Server 6.1.36 r152435 linux.amd64 (Jul 21 2022 10:08:57) release log
00:00:00.000570 main     Log opened 2022-08-02T04:19:43.340469000Z
00:00:00.000571 main     Build Type: release
00:00:00.000572 main     OS Product: Linux
00:00:00.000573 main     OS Release: 5.18.15-arch1-1
00:00:00.000574 main     OS Version: #1 SMP PREEMPT_DYNAMIC Fri, 29 Jul 2022 22:52:39 +0000
00:00:00.000771 main     DMI Product Name: Inspiron 3501
00:00:00.000775 main     DMI Product Version: 
00:00:00.000921 main     Firmware type: UEFI
00:00:00.001270 main     Secure Boot: Disabled
00:00:00.001295 main     Host RAM: 7677MB (7.4GB) total, 6223MB (6.0GB) available
00:00:00.001297 main     Executable: /usr/lib/virtualbox/VBoxSVC
00:00:00.001297 main     Process ID: 8079
00:00:00.001298 main     Package type: LINUX_64BITS_GENERIC (OSE)
00:00:00.002597 main     IPC socket path: /tmp/.vbox-oninsama-ipc/ipcd
00:00:00.107014 nspr-2   VirtualBox: object creation starts
00:00:00.107077 nspr-2   Home directory: '/home/oninsama/.config/VirtualBox'
00:00:00.107188 nspr-2   Loading settings file "/home/oninsama/.config/VirtualBox/VirtualBox.xml" with version "1.12-linux"
00:00:00.363217 nspr-2   HostDnsMonitor: initializing
00:00:00.363355 nspr-2   HostDnsMonitor: updating information
00:00:00.363359 nspr-2   HostDnsMonitor: unchanged
